\relax 
\providecommand\hyper@newdestlabel[2]{}
\@writefile{toc}{\contentsline {chapter}{\numberline {4}Arhitektura i dizajn sustava}{46}{chapter.4}\protected@file@percent }
\@writefile{lof}{\addvspace {10\p@ }}
\@writefile{lot}{\addvspace {10\p@ }}
\@writefile{lof}{\contentsline {figure}{\numberline {4.1}{\ignorespaces Arhitektura sustava: web aplikacija i baza podataka u \textit  {backendu}, mobilna aplikacija u \textit  {frontendu}}}{46}{figure.4.1}\protected@file@percent }
\newlabel{fig:generalnaarhitektura1}{{4.1}{46}{Arhitektura sustava: web aplikacija i baza podataka u \textit {backendu}, mobilna aplikacija u \textit {frontendu}}{figure.4.1}{}}
\@writefile{lof}{\contentsline {figure}{\numberline {4.2}{\ignorespaces MVC arhitekturni obrazac primijenjen na arhitekturu sustava klijent-poslužitelj (mobilna aplikacija - web aplikacija)}}{50}{figure.4.2}\protected@file@percent }
\newlabel{fig:generalnaarhitektura2}{{4.2}{50}{MVC arhitekturni obrazac primijenjen na arhitekturu sustava klijent-poslužitelj (mobilna aplikacija - web aplikacija)}{figure.4.2}{}}
\@writefile{toc}{\contentsline {section}{\numberline {4.1}Baza podataka}{51}{section.4.1}\protected@file@percent }
\@writefile{toc}{\contentsline {subsection}{\numberline {4.1.1}Opis tablica}{51}{subsection.4.1.1}\protected@file@percent }
\gdef \LT@ii {\LT@entry 
    {4}{112.3027pt}\LT@entry 
    {4}{111.90271pt}\LT@entry 
    {4}{211.40543pt}}
\gdef \LT@iii {\LT@entry 
    {4}{87.427pt}\LT@entry 
    {4}{87.02701pt}\LT@entry 
    {4}{261.15671pt}}
\gdef \LT@iv {\LT@entry 
    {4}{106.44965pt}\LT@entry 
    {4}{82.63724pt}\LT@entry 
    {4}{246.52414pt}}
\gdef \LT@v {\LT@entry 
    {4}{96.59174pt}\LT@entry 
    {4}{117.13968pt}\LT@entry 
    {4}{221.87936pt}}
\gdef \LT@vi {\LT@entry 
    {4}{76.48175pt}\LT@entry 
    {4}{107.92264pt}\LT@entry 
    {4}{251.2066pt}}
\gdef \LT@vii {\LT@entry 
    {4}{76.48175pt}\LT@entry 
    {4}{107.92264pt}\LT@entry 
    {4}{251.2066pt}}
\gdef \LT@viii {\LT@entry 
    {4}{149.43057pt}\LT@entry 
    {4}{95.56644pt}\LT@entry 
    {4}{190.6138pt}}
\gdef \LT@ix {\LT@entry 
    {4}{76.48175pt}\LT@entry 
    {4}{107.92264pt}\LT@entry 
    {4}{251.2066pt}}
\gdef \LT@x {\LT@entry 
    {4}{101.24689pt}\LT@entry 
    {4}{100.8469pt}\LT@entry 
    {4}{233.51724pt}}
\gdef \LT@xi {\LT@entry 
    {4}{101.24689pt}\LT@entry 
    {4}{100.8469pt}\LT@entry 
    {4}{233.51724pt}}
\gdef \LT@xii {\LT@entry 
    {4}{101.24689pt}\LT@entry 
    {4}{100.8469pt}\LT@entry 
    {4}{233.51724pt}}
\gdef \LT@xiii {\LT@entry 
    {4}{101.24689pt}\LT@entry 
    {4}{100.8469pt}\LT@entry 
    {4}{233.51724pt}}
\gdef \LT@xiv {\LT@entry 
    {4}{101.24689pt}\LT@entry 
    {4}{100.8469pt}\LT@entry 
    {4}{233.51724pt}}
\@writefile{toc}{\contentsline {subsection}{\numberline {4.1.2}Dijagram baze podataka}{59}{subsection.4.1.2}\protected@file@percent }
\@writefile{lof}{\contentsline {figure}{\numberline {4.3}{\ignorespaces E-R dijagram baze podataka}}{59}{figure.4.3}\protected@file@percent }
\newlabel{fig:bazapodatakadijagram}{{4.3}{59}{E-R dijagram baze podataka}{figure.4.3}{}}
\@writefile{toc}{\contentsline {section}{\numberline {4.2}Dijagram razreda}{60}{section.4.2}\protected@file@percent }
\@writefile{lof}{\contentsline {figure}{\numberline {4.4}{\ignorespaces Dijagram razreda - dio backend (Models)}}{62}{figure.4.4}\protected@file@percent }
\newlabel{fig:Modelclassdiagram}{{4.4}{62}{Dijagram razreda - dio backend (Models)}{figure.4.4}{}}
\@writefile{lof}{\contentsline {figure}{\numberline {4.5}{\ignorespaces Dijagram razreda - glavni paket aplikacije}}{64}{figure.4.5}\protected@file@percent }
\newlabel{fig:Package_iznajmiromobil}{{4.5}{64}{Dijagram razreda - glavni paket aplikacije}{figure.4.5}{}}
\@writefile{lof}{\contentsline {figure}{\numberline {4.6}{\ignorespaces Dijagram razreda - paket network}}{64}{figure.4.6}\protected@file@percent }
\newlabel{fig:Package_network}{{4.6}{64}{Dijagram razreda - paket network}{figure.4.6}{}}
\@writefile{lof}{\contentsline {figure}{\numberline {4.7}{\ignorespaces Dijagram razreda - paket network.repository}}{64}{figure.4.7}\protected@file@percent }
\newlabel{fig:Package_repository}{{4.7}{64}{Dijagram razreda - paket network.repository}{figure.4.7}{}}
\@writefile{lof}{\contentsline {figure}{\numberline {4.8}{\ignorespaces Dijagram razreda - paket network.api}}{65}{figure.4.8}\protected@file@percent }
\newlabel{fig:Package_network_api}{{4.8}{65}{Dijagram razreda - paket network.api}{figure.4.8}{}}
\@writefile{lof}{\contentsline {figure}{\numberline {4.9}{\ignorespaces Dijagram razreda - paket utils}}{66}{figure.4.9}\protected@file@percent }
\newlabel{fig:Package_utils}{{4.9}{66}{Dijagram razreda - paket utils}{figure.4.9}{}}
\@writefile{lof}{\contentsline {figure}{\numberline {4.10}{\ignorespaces Dijagram razreda - paket view}}{66}{figure.4.10}\protected@file@percent }
\newlabel{fig:Package_view}{{4.10}{66}{Dijagram razreda - paket view}{figure.4.10}{}}
\@writefile{lof}{\contentsline {figure}{\numberline {4.11}{\ignorespaces Dijagram razreda - paket view.publicUser}}{67}{figure.4.11}\protected@file@percent }
\newlabel{fig:Package_view_publicUser}{{4.11}{67}{Dijagram razreda - paket view.publicUser}{figure.4.11}{}}
\@writefile{lof}{\contentsline {figure}{\numberline {4.12}{\ignorespaces Dijagram razreda - paket view.login}}{67}{figure.4.12}\protected@file@percent }
\newlabel{fig:Package_view_login}{{4.12}{67}{Dijagram razreda - paket view.login}{figure.4.12}{}}
\@writefile{lof}{\contentsline {figure}{\numberline {4.13}{\ignorespaces Dijagram razreda - paket view.registration}}{67}{figure.4.13}\protected@file@percent }
\newlabel{fig:Package_view_registration}{{4.13}{67}{Dijagram razreda - paket view.registration}{figure.4.13}{}}
\@writefile{lof}{\contentsline {figure}{\numberline {4.14}{\ignorespaces Dijagram razreda - paket view.registeredUser}}{68}{figure.4.14}\protected@file@percent }
\newlabel{fig:Package_view_registeredUser}{{4.14}{68}{Dijagram razreda - paket view.registeredUser}{figure.4.14}{}}
\@writefile{lof}{\contentsline {figure}{\numberline {4.15}{\ignorespaces Dijagram razreda - paket view.registeredUser.mainActivities}}{69}{figure.4.15}\protected@file@percent }
\newlabel{fig:Package_registeredUser_mainActivities}{{4.15}{69}{Dijagram razreda - paket view.registeredUser.mainActivities}{figure.4.15}{}}
\@writefile{lof}{\contentsline {figure}{\numberline {4.16}{\ignorespaces Dijagram razreda - paket view.registeredUser.client}}{69}{figure.4.16}\protected@file@percent }
\newlabel{fig:Package_registeredUser_client}{{4.16}{69}{Dijagram razreda - paket view.registeredUser.client}{figure.4.16}{}}
\@writefile{lof}{\contentsline {figure}{\numberline {4.17}{\ignorespaces Dijagram razreda - paket view.registeredUser.renter}}{70}{figure.4.17}\protected@file@percent }
\newlabel{fig:Package_registeredUser_renter}{{4.17}{70}{Dijagram razreda - paket view.registeredUser.renter}{figure.4.17}{}}
\@writefile{lof}{\contentsline {figure}{\numberline {4.18}{\ignorespaces Dijagram razreda - paket view.chat}}{70}{figure.4.18}\protected@file@percent }
\newlabel{fig:Package_view_chat}{{4.18}{70}{Dijagram razreda - paket view.chat}{figure.4.18}{}}
\@writefile{lof}{\contentsline {figure}{\numberline {4.19}{\ignorespaces Dijagram razreda - paket view.offers}}{71}{figure.4.19}\protected@file@percent }
\newlabel{fig:Package_view_offers}{{4.19}{71}{Dijagram razreda - paket view.offers}{figure.4.19}{}}
\@writefile{lof}{\contentsline {figure}{\numberline {4.20}{\ignorespaces Dijagram razreda - paket view.scooters}}{71}{figure.4.20}\protected@file@percent }
\newlabel{fig:Package_view_scooters}{{4.20}{71}{Dijagram razreda - paket view.scooters}{figure.4.20}{}}
\@writefile{toc}{\contentsline {section}{\numberline {4.3}Dijagram stanja}{72}{section.4.3}\protected@file@percent }
\@writefile{lof}{\contentsline {figure}{\numberline {4.21}{\ignorespaces Dijagram stanja za slanje zahtjeva i prijave na ponudu}}{72}{figure.4.21}\protected@file@percent }
\newlabel{fig:Rent_Scooter_state_diagram}{{4.21}{72}{Dijagram stanja za slanje zahtjeva i prijave na ponudu}{figure.4.21}{}}
\@writefile{toc}{\contentsline {section}{\numberline {4.4}Dijagram aktivnosti}{73}{section.4.4}\protected@file@percent }
\@writefile{lof}{\contentsline {figure}{\numberline {4.22}{\ignorespaces Dijagram aktivnosti}}{73}{figure.4.22}\protected@file@percent }
\newlabel{fig:aktivnost}{{4.22}{73}{Dijagram aktivnosti}{figure.4.22}{}}
\@writefile{toc}{\contentsline {section}{\numberline {4.5}Dijagram komponenti}{74}{section.4.5}\protected@file@percent }
\@writefile{lof}{\contentsline {figure}{\numberline {4.23}{\ignorespaces Dijagram komponenti}}{74}{figure.4.23}\protected@file@percent }
\newlabel{fig:unit}{{4.23}{74}{Dijagram komponenti}{figure.4.23}{}}
\@setckpt{Arhitektura}{
\setcounter{page}{75}
\setcounter{equation}{0}
\setcounter{enumi}{1}
\setcounter{enumii}{2}
\setcounter{enumiii}{1}
\setcounter{enumiv}{0}
\setcounter{footnote}{0}
\setcounter{mpfootnote}{0}
\setcounter{part}{0}
\setcounter{chapter}{4}
\setcounter{section}{5}
\setcounter{subsection}{0}
\setcounter{subsubsection}{0}
\setcounter{paragraph}{0}
\setcounter{subparagraph}{0}
\setcounter{figure}{23}
\setcounter{table}{13}
\setcounter{parentequation}{0}
\setcounter{LT@tables}{14}
\setcounter{LT@chunks}{4}
\setcounter{Item}{302}
\setcounter{Hfootnote}{0}
\setcounter{bookmark@seq@number}{15}
\setcounter{float@type}{4}
\setcounter{section@level}{0}
}
