\relax 
\providecommand\hyper@newdestlabel[2]{}
\gdef \LT@i {\LT@entry 
    {4}{49.52484pt}\LT@entry 
    {4}{251.11154pt}\LT@entry 
    {4}{67.48727pt}\LT@entry 
    {4}{67.48727pt}}
\@writefile{toc}{\contentsline {chapter}{\numberline {1}Dnevnik promjena dokumentacije}{3}{chapter.1}\protected@file@percent }
\@writefile{lof}{\addvspace {10\p@ }}
\@writefile{lot}{\addvspace {10\p@ }}
\@setckpt{Dnevnik_promjena_dokumentacije}{
\setcounter{page}{7}
\setcounter{equation}{0}
\setcounter{enumi}{0}
\setcounter{enumii}{0}
\setcounter{enumiii}{0}
\setcounter{enumiv}{0}
\setcounter{footnote}{0}
\setcounter{mpfootnote}{0}
\setcounter{part}{0}
\setcounter{chapter}{1}
\setcounter{section}{0}
\setcounter{subsection}{0}
\setcounter{subsubsection}{0}
\setcounter{paragraph}{0}
\setcounter{subparagraph}{0}
\setcounter{figure}{0}
\setcounter{table}{1}
\setcounter{parentequation}{0}
\setcounter{LT@tables}{1}
\setcounter{LT@chunks}{4}
\setcounter{Item}{0}
\setcounter{Hfootnote}{0}
\setcounter{bookmark@seq@number}{1}
\setcounter{float@type}{4}
\setcounter{section@level}{0}
}
