\relax 
\providecommand\hyper@newdestlabel[2]{}
\@writefile{toc}{\contentsline {chapter}{Dodatak: Prikaz aktivnosti grupe}{87}{chapter*.30}\protected@file@percent }
\gdef \LT@xv {\LT@entry 
    {5}{180.80544pt}\LT@entry 
    {5}{36.40077pt}\LT@entry 
    {5}{36.40077pt}\LT@entry 
    {5}{36.40077pt}\LT@entry 
    {5}{36.40077pt}\LT@entry 
    {5}{36.40077pt}\LT@entry 
    {5}{36.40077pt}\LT@entry 
    {5}{36.40077pt}}
\@writefile{lof}{\contentsline {figure}{\numberline {6.1}{\ignorespaces Prikaz aktivnosti na repozitoriju - dio 1}}{91}{figure.6.1}\protected@file@percent }
\newlabel{fig:graphact1}{{6.1}{91}{Prikaz aktivnosti na repozitoriju - dio 1}{figure.6.1}{}}
\@writefile{lof}{\contentsline {figure}{\numberline {6.2}{\ignorespaces Prikaz aktivnosti na repozitoriju - dio 2}}{92}{figure.6.2}\protected@file@percent }
\newlabel{fig:graphact2}{{6.2}{92}{Prikaz aktivnosti na repozitoriju - dio 2}{figure.6.2}{}}
\@setckpt{Dodatak}{
\setcounter{page}{93}
\setcounter{equation}{0}
\setcounter{enumi}{12}
\setcounter{enumii}{2}
\setcounter{enumiii}{1}
\setcounter{enumiv}{0}
\setcounter{footnote}{0}
\setcounter{mpfootnote}{0}
\setcounter{part}{0}
\setcounter{chapter}{6}
\setcounter{section}{0}
\setcounter{subsection}{0}
\setcounter{subsubsection}{0}
\setcounter{paragraph}{0}
\setcounter{subparagraph}{0}
\setcounter{figure}{2}
\setcounter{table}{1}
\setcounter{parentequation}{0}
\setcounter{LT@tables}{15}
\setcounter{LT@chunks}{5}
\setcounter{Item}{324}
\setcounter{Hfootnote}{0}
\setcounter{bookmark@seq@number}{25}
\setcounter{float@type}{4}
\setcounter{section@level}{0}
}
