\babel@toc {croatian}{}
\addvspace {10\p@ }
\addvspace {10\p@ }
\contentsline {figure}{\numberline {2.1}{\ignorespaces Prozor s popisom trenutno aktualnih ponuda vozila (lijevo) i detaljan pogled na informacije o ponudi (desno)}}{10}{figure.2.1}% 
\contentsline {figure}{\numberline {2.2}{\ignorespaces Registracija vozila – upis tehničkih specifikacija (lijevo) i odabir fotografija (desno)}}{11}{figure.2.2}% 
\contentsline {figure}{\numberline {2.3}{\ignorespaces Prikaz razgovora između klijenta i iznajmljivača – iznajmljivač prihvatio zahtjev klijenta}}{12}{figure.2.3}% 
\addvspace {10\p@ }
\contentsline {figure}{\numberline {3.1}{\ignorespaces Dijagram obrazaca uporabe, funkcionalnost neregistriranog i registriranog korisnika}}{37}{figure.3.1}% 
\contentsline {figure}{\numberline {3.2}{\ignorespaces Dijagram obrazaca uporabe, funkcionalnost klijenta i iznajmljivača}}{38}{figure.3.2}% 
\contentsline {figure}{\numberline {3.3}{\ignorespaces Dijagram obrazaca uporabe, funkcionalnost administratora}}{39}{figure.3.3}% 
\contentsline {figure}{\numberline {3.4}{\ignorespaces Sekvencijski dijagram za UC18}}{40}{figure.3.4}% 
\contentsline {figure}{\numberline {3.5}{\ignorespaces Sekvencijski dijagram za UC20}}{41}{figure.3.5}% 
\contentsline {figure}{\numberline {3.6}{\ignorespaces Sekvencijski dijagram za UC25}}{42}{figure.3.6}% 
\contentsline {figure}{\numberline {3.7}{\ignorespaces Sekvencijski dijagram za UC36}}{43}{figure.3.7}% 
\addvspace {10\p@ }
\contentsline {figure}{\numberline {4.1}{\ignorespaces Arhitektura sustava: web aplikacija i baza podataka u \textit {backendu}, mobilna aplikacija u \textit {frontendu}}}{46}{figure.4.1}% 
\contentsline {figure}{\numberline {4.2}{\ignorespaces MVC arhitekturni obrazac primijenjen na arhitekturu sustava klijent-poslužitelj (mobilna aplikacija - web aplikacija)}}{50}{figure.4.2}% 
\contentsline {figure}{\numberline {4.3}{\ignorespaces E-R dijagram baze podataka}}{59}{figure.4.3}% 
\contentsline {figure}{\numberline {4.4}{\ignorespaces Dijagram razreda - dio backend (Models)}}{62}{figure.4.4}% 
\contentsline {figure}{\numberline {4.5}{\ignorespaces Dijagram razreda - glavni paket aplikacije}}{64}{figure.4.5}% 
\contentsline {figure}{\numberline {4.6}{\ignorespaces Dijagram razreda - paket network}}{64}{figure.4.6}% 
\contentsline {figure}{\numberline {4.7}{\ignorespaces Dijagram razreda - paket network.repository}}{64}{figure.4.7}% 
\contentsline {figure}{\numberline {4.8}{\ignorespaces Dijagram razreda - paket network.api}}{65}{figure.4.8}% 
\contentsline {figure}{\numberline {4.9}{\ignorespaces Dijagram razreda - paket utils}}{66}{figure.4.9}% 
\contentsline {figure}{\numberline {4.10}{\ignorespaces Dijagram razreda - paket view}}{66}{figure.4.10}% 
\contentsline {figure}{\numberline {4.11}{\ignorespaces Dijagram razreda - paket view.publicUser}}{67}{figure.4.11}% 
\contentsline {figure}{\numberline {4.12}{\ignorespaces Dijagram razreda - paket view.login}}{67}{figure.4.12}% 
\contentsline {figure}{\numberline {4.13}{\ignorespaces Dijagram razreda - paket view.registration}}{67}{figure.4.13}% 
\contentsline {figure}{\numberline {4.14}{\ignorespaces Dijagram razreda - paket view.registeredUser}}{68}{figure.4.14}% 
\contentsline {figure}{\numberline {4.15}{\ignorespaces Dijagram razreda - paket view.registeredUser.mainActivities}}{69}{figure.4.15}% 
\contentsline {figure}{\numberline {4.16}{\ignorespaces Dijagram razreda - paket view.registeredUser.client}}{69}{figure.4.16}% 
\contentsline {figure}{\numberline {4.17}{\ignorespaces Dijagram razreda - paket view.registeredUser.renter}}{70}{figure.4.17}% 
\contentsline {figure}{\numberline {4.18}{\ignorespaces Dijagram razreda - paket view.chat}}{70}{figure.4.18}% 
\contentsline {figure}{\numberline {4.19}{\ignorespaces Dijagram razreda - paket view.offers}}{71}{figure.4.19}% 
\contentsline {figure}{\numberline {4.20}{\ignorespaces Dijagram razreda - paket view.scooters}}{71}{figure.4.20}% 
\contentsline {figure}{\numberline {4.21}{\ignorespaces Dijagram stanja za slanje zahtjeva i prijave na ponudu}}{72}{figure.4.21}% 
\contentsline {figure}{\numberline {4.22}{\ignorespaces Dijagram aktivnosti}}{73}{figure.4.22}% 
\contentsline {figure}{\numberline {4.23}{\ignorespaces Dijagram komponenti}}{74}{figure.4.23}% 
\addvspace {10\p@ }
\contentsline {figure}{\numberline {5.1}{\ignorespaces Prikaz terminala nakon pokretanja unit testova}}{79}{figure.5.1}% 
\contentsline {figure}{\numberline {5.2}{\ignorespaces Dijagram razmještaja}}{80}{figure.5.2}% 
\addvspace {10\p@ }
\contentsline {figure}{\numberline {6.1}{\ignorespaces Prikaz aktivnosti na repozitoriju - dio 1}}{91}{figure.6.1}% 
\contentsline {figure}{\numberline {6.2}{\ignorespaces Prikaz aktivnosti na repozitoriju - dio 2}}{92}{figure.6.2}% 
