\relax 
\providecommand\hyper@newdestlabel[2]{}
\@writefile{toc}{\contentsline {chapter}{\numberline {3}Specifikacija programske potpore}{15}{chapter.3}\protected@file@percent }
\@writefile{lof}{\addvspace {10\p@ }}
\@writefile{lot}{\addvspace {10\p@ }}
\@writefile{toc}{\contentsline {section}{\numberline {3.1}Funkcionalni zahtjevi}{15}{section.3.1}\protected@file@percent }
\@writefile{toc}{\contentsline {subsection}{\numberline {3.1.1}Obrasci uporabe}{20}{subsection.3.1.1}\protected@file@percent }
\@writefile{toc}{\contentsline {subsubsection}{Opis obrazaca uporabe}{20}{subsubsection*.2}\protected@file@percent }
\@writefile{toc}{\contentsline {subsubsection}{Dijagrami obrazaca uporabe}{37}{subsubsection*.3}\protected@file@percent }
\@writefile{lof}{\contentsline {figure}{\numberline {3.1}{\ignorespaces Dijagram obrazaca uporabe, funkcionalnost neregistriranog i registriranog korisnika}}{37}{figure.3.1}\protected@file@percent }
\newlabel{fig:diaguc1}{{3.1}{37}{Dijagram obrazaca uporabe, funkcionalnost neregistriranog i registriranog korisnika}{figure.3.1}{}}
\@writefile{lof}{\contentsline {figure}{\numberline {3.2}{\ignorespaces Dijagram obrazaca uporabe, funkcionalnost klijenta i iznajmljivača}}{38}{figure.3.2}\protected@file@percent }
\newlabel{fig:diaguc2}{{3.2}{38}{Dijagram obrazaca uporabe, funkcionalnost klijenta i iznajmljivača}{figure.3.2}{}}
\@writefile{lof}{\contentsline {figure}{\numberline {3.3}{\ignorespaces Dijagram obrazaca uporabe, funkcionalnost administratora}}{39}{figure.3.3}\protected@file@percent }
\newlabel{fig:diaguc3}{{3.3}{39}{Dijagram obrazaca uporabe, funkcionalnost administratora}{figure.3.3}{}}
\@writefile{toc}{\contentsline {subsection}{\numberline {3.1.2}Sekvencijski dijagrami}{40}{subsection.3.1.2}\protected@file@percent }
\@writefile{lof}{\contentsline {figure}{\numberline {3.4}{\ignorespaces Sekvencijski dijagram za UC18}}{40}{figure.3.4}\protected@file@percent }
\newlabel{fig:sekvencijskidijagram18}{{3.4}{40}{Sekvencijski dijagram za UC18}{figure.3.4}{}}
\@writefile{lof}{\contentsline {figure}{\numberline {3.5}{\ignorespaces Sekvencijski dijagram za UC20}}{41}{figure.3.5}\protected@file@percent }
\newlabel{fig:sekvencijskidijagram20}{{3.5}{41}{Sekvencijski dijagram za UC20}{figure.3.5}{}}
\@writefile{lof}{\contentsline {figure}{\numberline {3.6}{\ignorespaces Sekvencijski dijagram za UC25}}{42}{figure.3.6}\protected@file@percent }
\newlabel{fig:sekvencijskidijagram25}{{3.6}{42}{Sekvencijski dijagram za UC25}{figure.3.6}{}}
\@writefile{lof}{\contentsline {figure}{\numberline {3.7}{\ignorespaces Sekvencijski dijagram za UC36}}{43}{figure.3.7}\protected@file@percent }
\newlabel{fig:sekvencijskidijagram36}{{3.7}{43}{Sekvencijski dijagram za UC36}{figure.3.7}{}}
\@writefile{toc}{\contentsline {section}{\numberline {3.2}Ostali zahtjevi}{44}{section.3.2}\protected@file@percent }
\@setckpt{Specifikacija_programske_potpore}{
\setcounter{page}{46}
\setcounter{equation}{0}
\setcounter{enumi}{1}
\setcounter{enumii}{2}
\setcounter{enumiii}{1}
\setcounter{enumiv}{0}
\setcounter{footnote}{0}
\setcounter{mpfootnote}{0}
\setcounter{part}{0}
\setcounter{chapter}{3}
\setcounter{section}{2}
\setcounter{subsection}{0}
\setcounter{subsubsection}{0}
\setcounter{paragraph}{0}
\setcounter{subparagraph}{0}
\setcounter{figure}{7}
\setcounter{table}{0}
\setcounter{parentequation}{0}
\setcounter{LT@tables}{1}
\setcounter{LT@chunks}{4}
\setcounter{Item}{302}
\setcounter{Hfootnote}{0}
\setcounter{bookmark@seq@number}{7}
\setcounter{float@type}{4}
\setcounter{section@level}{0}
}
